about – SAD_tan_spot
…
library(DescTools)

stats_data = sad_long2 %>% 
  group_by(method, rater) %>% 
  summarise(ccc = CCC(estimated, real)$rho.c$est,
            r = cor(estimated, real),
            cb = CCC(estimated, real)$C.b,
            ccc_lower = CCC(estimated, real)$rho.c$lwr.ci,
            ccc_upper = CCC(estimated, real)$rho.c$upr.ci,
            s.shift = CCC(estimated, real)$s.shift,
            l.shift = CCC(estimated, real)$l.shift)
stats_data

# A tibble: 84 × 9
# Groups:   method [3]
   method rater   ccc     r    cb ccc_lower ccc_upper s.shift l.shift
   <chr>  <dbl> <dbl> <dbl> <dbl>     <dbl>     <dbl>   <dbl>   <dbl>
 1 new        1 0.926 0.942 0.983     0.897     0.947    1.07  0.175 
 2 new        2 0.913 0.944 0.968     0.880     0.937    1.07  0.250 
 3 new        4 0.943 0.953 0.990     0.921     0.959    1.11  0.0976
 4 new        5 0.931 0.978 0.952     0.907     0.948    1.12 -0.297 
 5 new        6 0.859 0.920 0.934     0.811     0.896    1.07  0.370 
 6 new        7 0.923 0.939 0.983     0.893     0.945    1.07  0.175 
 7 new        8 0.910 0.944 0.964     0.878     0.933    1.21  0.195 
 8 new        9 0.897 0.922 0.973     0.859     0.925    1.18  0.166 
 9 new       11 0.954 0.960 0.994     0.935     0.967    1.06  0.0975
10 new       12 0.910 0.936 0.972     0.878     0.935    1.17  0.177 
# ℹ 74 more rows
…
